context,mstate,mlevel,0
CG,stable,low,3730519
CG,stable,moderately low,34926
CG,stable,intermediate,51369
CG,stable,moderately high,272834
CG,stable,high,1061833
CG,indifferent,low,37374
CG,indifferent,moderately low,42504
CG,indifferent,intermediate,35557
CG,indifferent,moderately high,69911
CG,indifferent,high,65709
CG,metastable,moderately low,1698
CG,metastable,intermediate,3947
CG,metastable,moderately high,1141
CHG,stable,low,5045269
CHG,stable,moderately low,236656
CHG,stable,intermediate,245347
CHG,stable,moderately high,220121
CHG,stable,high,46725
CHG,indifferent,low,18401
CHG,indifferent,moderately low,36978
CHG,indifferent,intermediate,42867
CHG,indifferent,moderately high,35439
CHG,indifferent,high,4879
CHG,metastable,moderately low,755
CHG,metastable,intermediate,782
CHG,metastable,moderately high,479
CHH,stable,low,29125066
CHH,stable,moderately low,556338
CHH,stable,intermediate,180672
CHH,stable,moderately high,36667
CHH,stable,high,2998
CHH,indifferent,low,228630
CHH,indifferent,moderately low,114699
CHH,indifferent,intermediate,42373
CHH,indifferent,moderately high,8714
CHH,indifferent,high,517
CHH,metastable,moderately low,3977
CHH,metastable,intermediate,2151
CHH,metastable,moderately high,576
