sample,group
rosette_leaves,rosette
rosetteLeaf_rosetteLeaf2_Col_0,rosette
rosetteLeaf_rosetteLeaf4_Col_0,rosette
rosetteLeaf_rosetteLeaf6_Col_0,rosette
rosetteLeaf_rosetteLeaf8_Col_0,rosette
rosetteLeaf_rosetteLeaf10_Col_0,rosette
rosetteLeaf_rosetteLeaf12_Col_0,rosette
rosette_leaves,embryo
rosetteLeaf_rosetteLeaf2_Col_0,embryo
rosetteLeaf_rosetteLeaf4_Col_0,embryo
rosetteLeaf_rosetteLeaf6_Col_0,embryo
rosetteLeaf_rosetteLeaf8_Col_0,embryo
rosetteLeaf_rosetteLeaf10_Col_0,embryo
rosetteLeaf_rosetteLeaf12_Col_0,embryo
sperm_borges,sperm_cell
shootApex_seedling7days_Col_0,shoot
shootApex_rosetteStage_Col_0,shoot
flowers_floralStage10_Col_0,immature_flower_buds
flowers_floralStage1011_Col_0,immature_flower_buds
flowers_floralStage13_Col_0,immature_flower_buds
wholePlant_21days_Col_0,whole_organism
wholePlant_22days_Col_0,whole_organism
wholePlant_23days_Col_0,whole_organism
root_whole_StageI,root
root_whole_StageII,root
root_whole_StageIII,root
inflorescence_inflorescenceAfterBolting_Col_0,inflorescence
globularMicropylarEndosperm,endosperm
globularPeripheralEndosperm,endosperm
globularChalazalEndosperm,endosperm
pre_globularMicropylarEndosperm,endosperm
pre_globularPeripheralEndosperm,endosperm
pre_globularChalazalEndosperm,endosperm
linear_cotyledonCellularizedEndosperm,endosperm
linear_cotyledonChalazalEndosperm,endosperm
linear_cotyledonMicropylarEndosperm,endosperm
heartMicropylarEndosperm,endosperm
heartPeripheralEndosperm,endosperm
heartChalazalEndosperm,endosperm
matureMicropylarEndosperm,endosperm
maturePeripheralEndosperm,endosperm
matureChalazalEndosperm,endosperm
