treatment,biosample,genotype,photoperiod,study_origin,development.stage,lineage,study,genome_source,ecotype,experiment,label,url
,SAMN00002557,wt,,"Daniel Zilberman, Plant and Microbial Biology, University of California at Berkeley",,,PRJNA116929,embryo,Col-0,SRX005322,SRR017252,/myProcessed/processed/SRR017252.count/SRR017252_CHH.bedGraph.gz
,SAMN00002557,wt,,"Daniel Zilberman, Plant and Microbial Biology, University of California at Berkeley",,,PRJNA116929,embryo,Col-0,SRX005322,SRR017253,/myProcessed/processed/SRR017253.count/SRR017253_CHH.bedGraph.gz
,SAMN00002557,wt,,"Daniel Zilberman, Plant and Microbial Biology, University of California at Berkeley",,,PRJNA116929,embryo,Col-0,SRX005322,SRR017254,/myProcessed/processed/SRR017254.count/SRR017254_CHH.bedGraph.gz
,SAMN00002557,wt,,"Daniel Zilberman, Plant and Microbial Biology, University of California at Berkeley",,,PRJNA116929,embryo,Col-0,SRX005322,SRR017255,/myProcessed/processed/SRR017255.count/SRR017255_CHH.bedGraph.gz
,SAMN00002557,wt,,"Daniel Zilberman, Plant and Microbial Biology, University of California at Berkeley",,,PRJNA116929,embryo,Col-0,SRX005322,SRR017256,/myProcessed/processed/SRR017256.count/SRR017256_CHH.bedGraph.gz
