treatment,biosample,genotype,photoperiod,study_origin,development.stage,lineage,study,genome_source,ecotype,experiment,label,url
cold,SAMEA2668239,wt,,"Max Planck Institute for Developmental Biology, Tuebingen, Germany",,,PRJEB6701,root,Col-0,ERX534141,ERR575729,/myProcessed/processed/ERR575729.count/ERR575729_CpG.bedGraph.gz
,SAMN02640060,wt,,UCLA,,,PRJNA237956,root,Col-0,SRX469414,SRR1167698,/myProcessed/processed/SRR1167698.count/SRR1167698_CpG.bedGraph.gz
,SAMN02640060,wt,,UCLA,,,PRJNA237956,root,Col-0,SRX469414,SRR1167699,/myProcessed/processed/SRR1167699.count/SRR1167699_CpG.bedGraph.gz
,SAMN02640060,wt,,UCLA,,,PRJNA237956,root,Col-0,SRX469414,SRR1167700,/myProcessed/processed/SRR1167700.count/SRR1167700_CpG.bedGraph.gz
,SAMN02640060,wt,,UCLA,,,PRJNA237956,root,Col-0,SRX469414,SRR1167701,/myProcessed/processed/SRR1167701.count/SRR1167701_CpG.bedGraph.gz
,SAMN02640060,wt,,UCLA,,,PRJNA237956,root,Col-0,SRX469414,SRR1167702,/myProcessed/processed/SRR1167702.count/SRR1167702_CpG.bedGraph.gz
,SAMN02640060,wt,,UCLA,,,PRJNA237956,root,Col-0,SRX469414,SRR1167703,/myProcessed/processed/SRR1167703.count/SRR1167703_CpG.bedGraph.gz
,SAMN02640060,wt,,UCLA,,,PRJNA237956,root,Col-0,SRX469414,SRR1167704,/myProcessed/processed/SRR1167704.count/SRR1167704_CpG.bedGraph.gz
,SAMN02640060,wt,,UCLA,,,PRJNA237956,root,Col-0,SRX469414,SRR1167705,/myProcessed/processed/SRR1167705.count/SRR1167705_CpG.bedGraph.gz
,SAMN02640060,wt,,UCLA,,,PRJNA237956,root,Col-0,SRX469414,SRR1167706,/myProcessed/processed/SRR1167706.count/SRR1167706_CpG.bedGraph.gz
,SAMN02640060,wt,,UCLA,,,PRJNA237956,root,Col-0,SRX469414,SRR1167707,/myProcessed/processed/SRR1167707.count/SRR1167707_CpG.bedGraph.gz
,SAMN02640060,wt,,UCLA,,,PRJNA237956,root,Col-0,SRX469414,SRR1167708,/myProcessed/processed/SRR1167708.count/SRR1167708_CpG.bedGraph.gz
,SAMN02640060,wt,,UCLA,,,PRJNA237956,root,Col-0,SRX469414,SRR1167709,/myProcessed/processed/SRR1167709.count/SRR1167709_CpG.bedGraph.gz
,SAMN02640060,wt,,UCLA,,,PRJNA237956,root,Col-0,SRX469414,SRR1167710,/myProcessed/processed/SRR1167710.count/SRR1167710_CpG.bedGraph.gz
,SAMN02640059,wt,,UCLA,,,PRJNA237956,root,Col-0,SRX469415,SRR1167711,/myProcessed/processed/SRR1167711.count/SRR1167711_CpG.bedGraph.gz
,SAMN02640059,wt,,UCLA,,,PRJNA237956,root,Col-0,SRX469415,SRR1167712,/myProcessed/processed/SRR1167712.count/SRR1167712_CpG.bedGraph.gz
,SAMN02640059,wt,,UCLA,,,PRJNA237956,root,Col-0,SRX469415,SRR1167713,/myProcessed/processed/SRR1167713.count/SRR1167713_CpG.bedGraph.gz
,SAMN02640059,wt,,UCLA,,,PRJNA237956,root,Col-0,SRX469415,SRR1167714,/myProcessed/processed/SRR1167714.count/SRR1167714_CpG.bedGraph.gz
500 mM NaH2PO4 for 10 days,SAMN02687995,wt,,University of Western Australia,seedling,,PRJNA241054,root,Col-0,SRX485644,SRR1188584,/myProcessed/processed/SRR1188584.count/SRR1188584_CpG.bedGraph.gz
500 mM NaH2PO4 for 10 days,SAMN02687996,wt,,University of Western Australia,seedling,,PRJNA241054,root,Col-0,SRX485645,SRR1188585,/myProcessed/processed/SRR1188585.count/SRR1188585_CpG.bedGraph.gz
500 mM NaH2PO4 for 10 days,SAMN02687997,wt,,University of Western Australia,seedling,,PRJNA241054,root,Col-0,SRX485646,SRR1188586,/myProcessed/processed/SRR1188586.count/SRR1188586_CpG.bedGraph.gz
13 mM NaH2PO4 for 10 days,SAMN02687998,wt,,University of Western Australia,seedling,,PRJNA241054,root,Col-0,SRX485647,SRR1188587,/myProcessed/processed/SRR1188587.count/SRR1188587_CpG.bedGraph.gz
13 mM NaH2PO4 for 10 days,SAMN02687999,wt,,University of Western Australia,seedling,,PRJNA241054,root,Col-0,SRX485648,SRR1188588,/myProcessed/processed/SRR1188588.count/SRR1188588_CpG.bedGraph.gz
13 mM NaH2PO4 for 10 days,SAMN02688000,wt,,University of Western Australia,seedling,,PRJNA241054,root,Col-0,SRX485649,SRR1188589,/myProcessed/processed/SRR1188589.count/SRR1188589_CpG.bedGraph.gz
13 mM NaH2PO4 for 7 days and 500 mM NaH2PO4 for 3 days,SAMN02688001,wt,,University of Western Australia,seedling,,PRJNA241054,root,Col-0,SRX485650,SRR1188590,/myProcessed/processed/SRR1188590.count/SRR1188590_CpG.bedGraph.gz
13 mM NaH2PO4 for 7 days and 500 mM NaH2PO4 for 3 days,SAMN02688002,wt,,University of Western Australia,seedling,,PRJNA241054,root,Col-0,SRX485651,SRR1188591,/myProcessed/processed/SRR1188591.count/SRR1188591_CpG.bedGraph.gz
13 mM NaH2PO4 for 7 days and 500 mM NaH2PO4 for 3 days,SAMN02688003,wt,,University of Western Australia,seedling,,PRJNA241054,root,Col-0,SRX485652,SRR1188592,/myProcessed/processed/SRR1188592.count/SRR1188592_CpG.bedGraph.gz
,SAMN01757903,wt,,"Daniel Zilberman, Plant and Microbial Biology, University of California at Berkeley",week 3,,PRJNA176484,root,Col-0,SRX190991,SRR578936,/myProcessed/processed/SRR578936.count/SRR578936_CpG.bedGraph.gz
,SAMN01757903,wt,,"Daniel Zilberman, Plant and Microbial Biology, University of California at Berkeley",week 3,,PRJNA176484,root,Col-0,SRX190991,SRR578937,/myProcessed/processed/SRR578937.count/SRR578937_CpG.bedGraph.gz
,SAMN01974826,wt,,"Daniel Zilberman, Plant and Microbial Biology, University of California at Berkeley",week 4,,PRJNA176484,root,Col-0,SRX248528,SRR771514,/myProcessed/processed/SRR771514.count/SRR771514_CpG.bedGraph.gz
,SAMN01974826,wt,,"Daniel Zilberman, Plant and Microbial Biology, University of California at Berkeley",week 4,,PRJNA176484,root,Col-0,SRX248528,SRR771515,/myProcessed/processed/SRR771515.count/SRR771515_CpG.bedGraph.gz
,SAMN01974826,wt,,"Daniel Zilberman, Plant and Microbial Biology, University of California at Berkeley",week 4,,PRJNA176484,root,Col-0,SRX248528,SRR771516,/myProcessed/processed/SRR771516.count/SRR771516_CpG.bedGraph.gz
,SAMN01974826,wt,,"Daniel Zilberman, Plant and Microbial Biology, University of California at Berkeley",week 4,,PRJNA176484,root,Col-0,SRX248528,SRR771517,/myProcessed/processed/SRR771517.count/SRR771517_CpG.bedGraph.gz
