treatment,biosample,genotype,photoperiod,study_origin,development.stage,lineage,study,genome_source,ecotype,experiment,label,url
25 mM NaCl,SAMEA3484755,wt,LD16:8,"Max Planck Institute for Developmental Biology, Tuebingen, Germany",adult,P0,PRJEB9076,vegetative nucleus,Col-0,ERX1041526,ERR964563,/myProcessed/processed/ERR964563.count/ERR964563_CHH.bedGraph.gz
25 mM NaCl,SAMEA3484755,wt,LD16:8,"Max Planck Institute for Developmental Biology, Tuebingen, Germany",adult,P0,PRJEB9076,vegetative nucleus,Col-0,ERX1041529,ERR964566,/myProcessed/processed/ERR964566.count/ERR964566_CHH.bedGraph.gz
25 mM NaCl,SAMEA3484755,wt,LD16:8,"Max Planck Institute for Developmental Biology, Tuebingen, Germany",adult,P0,PRJEB9076,vegetative nucleus,Col-0,ERX1041531,ERR964568,/myProcessed/processed/ERR964568.count/ERR964568_CHH.bedGraph.gz
25 mM NaCl,SAMEA3484755,wt,LD16:8,"Max Planck Institute for Developmental Biology, Tuebingen, Germany",adult,P0,PRJEB9076,vegetative nucleus,Col-0,ERX1041532,ERR964569,/myProcessed/processed/ERR964569.count/ERR964569_CHH.bedGraph.gz
75 mM NaCl,SAMEA3484757,wt,LD16:8,"Max Planck Institute for Developmental Biology, Tuebingen, Germany",adult,P0,PRJEB9076,vegetative nucleus,Col-0,ERX1041534,ERR964571,/myProcessed/processed/ERR964571.count/ERR964571_CHH.bedGraph.gz
75 mM NaCl,SAMEA3484757,wt,LD16:8,"Max Planck Institute for Developmental Biology, Tuebingen, Germany",adult,P0,PRJEB9076,vegetative nucleus,Col-0,ERX1041535,ERR964572,/myProcessed/processed/ERR964572.count/ERR964572_CHH.bedGraph.gz
75 mM NaCl,SAMEA3484757,wt,LD16:8,"Max Planck Institute for Developmental Biology, Tuebingen, Germany",adult,P0,PRJEB9076,vegetative nucleus,Col-0,ERX1041537,ERR964574,/myProcessed/processed/ERR964574.count/ERR964574_CHH.bedGraph.gz
75 mM NaCl,SAMEA3484757,wt,LD16:8,"Max Planck Institute for Developmental Biology, Tuebingen, Germany",adult,P0,PRJEB9076,vegetative nucleus,Col-0,ERX1041538,ERR964575,/myProcessed/processed/ERR964575.count/ERR964575_CHH.bedGraph.gz
75 mM NaCl,SAMEA3484757,wt,LD16:8,"Max Planck Institute for Developmental Biology, Tuebingen, Germany",adult,P0,PRJEB9076,vegetative nucleus,Col-0,ERX1041541,ERR964578,/myProcessed/processed/ERR964578.count/ERR964578_CHH.bedGraph.gz
75 mM NaCl,SAMEA3484757,wt,LD16:8,"Max Planck Institute for Developmental Biology, Tuebingen, Germany",adult,P0,PRJEB9076,vegetative nucleus,Col-0,ERX1041542,ERR964579,/myProcessed/processed/ERR964579.count/ERR964579_CHH.bedGraph.gz
NaCl control,SAMEA3484753,wt,LD16:8,"Max Planck Institute for Developmental Biology, Tuebingen, Germany",adult,P0,PRJEB9076,vegetative nucleus,Col-0,ERX1041544,ERR964581,/myProcessed/processed/ERR964581.count/ERR964581_CHH.bedGraph.gz
NaCl control,SAMEA3484753,wt,LD16:8,"Max Planck Institute for Developmental Biology, Tuebingen, Germany",adult,P0,PRJEB9076,vegetative nucleus,Col-0,ERX1041546,ERR964583,/myProcessed/processed/ERR964583.count/ERR964583_CHH.bedGraph.gz
NaCl control,SAMEA3484753,wt,LD16:8,"Max Planck Institute for Developmental Biology, Tuebingen, Germany",adult,P0,PRJEB9076,vegetative nucleus,Col-0,ERX1041548,ERR964585,/myProcessed/processed/ERR964585.count/ERR964585_CHH.bedGraph.gz
,SAMN01057771,wt,,"Daniel Zilberman, Plant and Microbial Biology, University of California at Berkeley",,,PRJNA169395,vegetative nucleus,Col-0,SRX156135,SRR516180,/myProcessed/processed/SRR516180.count/SRR516180_CHH.bedGraph.gz
,SAMN01141767,wt,,"Martienssen, Delbruck Bldg., Cold Spring Harbor Laboratory",,,PRJNA174185,vegetative nucleus,Col-0,SRX181500,SRR548295,/myProcessed/processed/SRR548295.count/SRR548295_CHH.bedGraph.gz
