treatment,biosample,genotype,photoperiod,study_origin,development.stage,lineage,study,genome_source,ecotype,experiment,label,url
,SAMN00002558,wt,,"Daniel Zilberman, Plant and Microbial Biology, University of California at Berkeley",,,PRJNA116929,endosperm,Col-0,SRX005323,SRR017257,/myProcessed/processed/SRR017257.count/SRR017257_CHH.bedGraph.gz
,SAMN00002558,wt,,"Daniel Zilberman, Plant and Microbial Biology, University of California at Berkeley",,,PRJNA116929,endosperm,Col-0,SRX005323,SRR017258,/myProcessed/processed/SRR017258.count/SRR017258_CHH.bedGraph.gz
,SAMN00002558,wt,,"Daniel Zilberman, Plant and Microbial Biology, University of California at Berkeley",,,PRJNA116929,endosperm,Col-0,SRX005323,SRR017259,/myProcessed/processed/SRR017259.count/SRR017259_CHH.bedGraph.gz
,SAMN00002558,wt,,"Daniel Zilberman, Plant and Microbial Biology, University of California at Berkeley",,,PRJNA116929,endosperm,Col-0,SRX005323,SRR017260,/myProcessed/processed/SRR017260.count/SRR017260_CHH.bedGraph.gz
,SAMN00002558,wt,,"Daniel Zilberman, Plant and Microbial Biology, University of California at Berkeley",,,PRJNA116929,endosperm,Col-0,SRX005323,SRR017261,/myProcessed/processed/SRR017261.count/SRR017261_CHH.bedGraph.gz
,SAMN02423256,wt,,Whitehead Institute for Biomedical Research,day 6 after pollination,,PRJNA230117,endosperm,Col-0,SRX384700,SRR1039896,/myProcessed/processed/SRR1039896.count/SRR1039896_CHH.bedGraph.gz
,SAMN02423256,wt,,Whitehead Institute for Biomedical Research,day 6 after pollination,,PRJNA230117,endosperm,Col-0,SRX384700,SRR1039897,/myProcessed/processed/SRR1039897.count/SRR1039897_CHH.bedGraph.gz
